wave_router.vcd
$date
     Jul 26, 2024       12:45:47
$end

$version
 SystemC 2.3.3-Accellera --- Apr 14 2022 13:23:48
$end

$timescale
     1 ps
$end

$scope module SystemC $end
$var wire    1  aaaaa  trigger       $end
$var wire   32  aaaab  x_id_p_fault_target_from_in [31:0]  $end
$var wire   32  aaaac  y_id_p_fault_target_from_in [31:0]  $end
$var wire   32  aaaad  lin0_x_id_p_fault_target_from_in [31:0]  $end
$var wire   32  aaaae  nin0_x_id_p_fault_target_from_in [31:0]  $end
$var wire   32  aaaaf  ein0_x_id_p_fault_target_from_in [31:0]  $end
$var wire   32  aaaag  sin0_x_id_p_fault_target_from_in [31:0]  $end
$var wire   32  aaaah  win0_x_id_p_fault_target_from_in [31:0]  $end
$var wire   32  aaaai  lin0_y_id_p_fault_target_from_in [31:0]  $end
$var wire   32  aaaaj  nin0_y_id_p_fault_target_from_in [31:0]  $end
$var wire   32  aaaak  ein0_y_id_p_fault_target_from_in [31:0]  $end
$var wire   32  aaaal  sin0_y_id_p_fault_target_from_in [31:0]  $end
$var wire   32  aaaam  win0_y_id_p_fault_target_from_in [31:0]  $end
$var wire   32  aaaan  lin0_flow_in0_state [31:0]  $end
$var wire   32  aaaao  nin0_flow_in0_state [31:0]  $end
$var wire   32  aaaap  ein0_flow_in0_state [31:0]  $end
$var wire   32  aaaaq  sin0_flow_in0_state [31:0]  $end
$var wire   32  aaaar  win0_flow_in0_state [31:0]  $end
$var wire    8  aaaas  lin0_buffering0_fifo_r_0 [7:0]  $end
$var wire    8  aaaat  nin0_buffering0_fifo_r_0 [7:0]  $end
$var wire    8  aaaau  ein0_buffering0_fifo_r_0 [7:0]  $end
$var wire    8  aaaav  sin0_buffering0_fifo_r_0 [7:0]  $end
$var wire    8  aaaaw  win0_buffering0_fifo_r_0 [7:0]  $end
$var wire   32  aaaax  lin0_buffering0_rd_ptr_r [31:0]  $end
$var wire   32  aaaay  nin0_buffering0_rd_ptr_r [31:0]  $end
$var wire   32  aaaaz  ein0_buffering0_rd_ptr_r [31:0]  $end
$var wire   32  aaaba  sin0_buffering0_rd_ptr_r [31:0]  $end
$var wire   32  aaabb  win0_buffering0_rd_ptr_r [31:0]  $end
$var wire   32  aaabc  lin0_routing0_x_id_p0_fault_target_from_in [31:0]  $end
$var wire   32  aaabd  nin0_routing0_x_id_p0_fault_target_from_in [31:0]  $end
$var wire   32  aaabe  ein0_routing0_x_id_p0_fault_target_from_in [31:0]  $end
$var wire   32  aaabf  sin0_routing0_x_id_p0_fault_target_from_in [31:0]  $end
$var wire   32  aaabg  win0_routing0_x_id_p0_fault_target_from_in [31:0]  $end
$var wire   32  aaabh  lin0_routing0_y_id_p0_fault_target_from_in [31:0]  $end
$var wire   32  aaabi  nin0_routing0_y_id_p0_fault_target_from_in [31:0]  $end
$var wire   32  aaabj  ein0_routing0_y_id_p0_fault_target_from_in [31:0]  $end
$var wire   32  aaabk  sin0_routing0_y_id_p0_fault_target_from_in [31:0]  $end
$var wire   32  aaabl  win0_routing0_y_id_p0_fault_target_from_in [31:0]  $end
$var wire   32  aaabm  lin0_routing0_state [31:0]  $end
$var wire   32  aaabn  nin0_routing0_state [31:0]  $end
$var wire   32  aaabo  ein0_routing0_state [31:0]  $end
$var wire   32  aaabp  sin0_routing0_state [31:0]  $end
$var wire   32  aaabq  win0_routing0_state [31:0]  $end
$var wire   32  aaabr  lout0_arbitration0_state [31:0]  $end
$var wire   32  aaabs  nout0_arbitration0_state [31:0]  $end
$var wire   32  aaabt  eout0_arbitration0_state [31:0]  $end
$var wire   32  aaabu  sout0_arbitration0_state [31:0]  $end
$var wire   32  aaabv  wout0_arbitration0_state [31:0]  $end
$var wire   32  aaabw  lout0_flow_out0_state [31:0]  $end
$var wire   32  aaabx  nout0_flow_out0_state [31:0]  $end
$var wire   32  aaaby  eout0_flow_out0_state [31:0]  $end
$var wire   32  aaabz  sout0_flow_out0_state [31:0]  $end
$var wire   32  aaaca  wout0_flow_out0_state [31:0]  $end
$var wire    1  aaacb  w_out_ack_i       $end
$var wire    1  aaacc  w_out_val_o       $end
$var wire    8  aaacd  w_out_data_o [7:0]  $end
$var wire    1  aaace  w_in_ack_o       $end
$var wire    1  aaacf  w_in_val_i       $end
$var wire    8  aaacg  w_in_data_i [7:0]  $end
$var wire    1  aaach  s_out_ack_i       $end
$var wire    1  aaaci  s_out_val_o       $end
$var wire    8  aaacj  s_out_data_o [7:0]  $end
$var wire    1  aaack  s_in_ack_o       $end
$var wire    1  aaacl  s_in_val_i       $end
$var wire    8  aaacm  s_in_data_i [7:0]  $end
$var wire    1  aaacn  e_out_ack_i       $end
$var wire    1  aaaco  e_out_val_o       $end
$var wire    8  aaacp  e_out_data_o [7:0]  $end
$var wire    1  aaacq  e_in_ack_o       $end
$var wire    1  aaacr  e_in_val_i       $end
$var wire    8  aaacs  e_in_data_i [7:0]  $end
$var wire    1  aaact  n_out_ack_i       $end
$var wire    1  aaacu  n_out_val_o       $end
$var wire    8  aaacv  n_out_data_o [7:0]  $end
$var wire    1  aaacw  n_in_ack_o       $end
$var wire    1  aaacx  n_in_val_i       $end
$var wire    8  aaacy  n_in_data_i [7:0]  $end
$var wire    1  aaacz  l_out_ack_i       $end
$var wire    1  aaada  l_out_val_o       $end
$var wire    8  aaadb  l_out_data_o [7:0]  $end
$var wire    1  aaadc  l_in_ack_o       $end
$var wire    1  aaadd  l_in_val_i       $end
$var wire    8  aaade  l_in_data_i [7:0]  $end
$var wire    1  aaadf  rst       $end
$var wire    1  aaadg  clk       $end
$upscope $end
$enddefinitions  $end

$comment
All initial values are dumped below at time 0 sec = 0 timescale units.
$end

$dumpvars
0aaaaa
b1 aaaab
b1 aaaac
b1 aaaad
b1 aaaae
b1 aaaaf
b1 aaaag
b1 aaaah
b1 aaaai
b1 aaaaj
b1 aaaak
b1 aaaal
b1 aaaam
b0 aaaan
b0 aaaao
b0 aaaap
b0 aaaaq
b0 aaaar
b0 aaaas
b0 aaaat
b0 aaaau
b0 aaaav
b0 aaaaw
b0 aaaax
b0 aaaay
b0 aaaaz
b0 aaaba
b0 aaabb
b1 aaabc
b1 aaabd
b1 aaabe
b1 aaabf
b1 aaabg
b1 aaabh
b1 aaabi
b1 aaabj
b1 aaabk
b1 aaabl
b0 aaabm
b0 aaabn
b0 aaabo
b0 aaabp
b0 aaabq
b0 aaabr
b0 aaabs
b0 aaabt
b0 aaabu
b0 aaabv
b0 aaabw
b0 aaabx
b0 aaaby
b0 aaabz
b0 aaaca
0aaacb
0aaacc
b0 aaacd
0aaace
0aaacf
b0 aaacg
0aaach
0aaaci
b0 aaacj
0aaack
0aaacl
b0 aaacm
0aaacn
0aaaco
b0 aaacp
0aaacq
0aaacr
b0 aaacs
0aaact
0aaacu
b0 aaacv
0aaacw
0aaacx
b0 aaacy
0aaacz
0aaada
b0 aaadb
0aaadc
0aaadd
b0 aaade
1aaadf
1aaadg
$end

#500
0aaadg

#1000
1aaaaa
b11010100 aaaaw
0aaadf
1aaadg

#1500
0aaadg

#2000
1aaadg

#2500
0aaadg

#3000
1aaadg

#3500
0aaadg

#4000
1aaadg

#4500
0aaadg

#5000
1aaadg

#5500
0aaadg

#6000
1aaadg

#6500
0aaadg

#7000
1aaadg

#7500
0aaadg

#8000
1aaadg

#8500
0aaadg

#9000
1aaadg

#9500
0aaadg

#10000
1aaadg

#10500
0aaadg

#11000
1aaadg

#11500
0aaadg

#12000
1aaadg

#12500
0aaadg

#13000
1aaadg

#13500
0aaadg

#14000
1aaadg

#14500
0aaadg

#15000
1aaadg

#15500
0aaadg

#16000
1aaadg

#16500
0aaadg

#17000
1aaadg

#17500
0aaadg

#18000
1aaadg

#18500
0aaadg

#19000
1aaadg

#19500
0aaadg

#20000
1aaadg

#20500
0aaadg

#21000
1aaadg

#21500
0aaadg

#22000
1aaadg

#22500
0aaadg

#23000
1aaadg

#23500
0aaadg

#24000
1aaadg

#24500
0aaadg

#25000
1aaadg

#25500
0aaadg

#26000
1aaadg

#26500
0aaadg

#27000
1aaadg

#27500
0aaadg

#28000
1aaacr
b10010001 aaacs
1aaadg

#28500
0aaadg

#29000
b1 aaaap
1aaadg

#29500
0aaadg

#30000
b10 aaaap
1aaacl
b10010001 aaacm
1aaacq
1aaadg

#30500
0aaadg

#31000
b1 aaaaq
b10010001 aaaau
b1 aaaaz
0aaacr
1aaadg

#31500
0aaadg

#32000
b0 aaaap
b10 aaaaq
b101 aaabo
1aaack
1aaadg

#32500
0aaadg

#33000
b10010001 aaaav
b1 aaaba
0aaacl
0aaacq
1aaadg

#33500
0aaadg

#34000
b0 aaaaq
b101 aaabp
b11 aaabr
b11101 aaacs
1aaadg

#34500
0aaadg

#35000
0aaack
1aaacr
b10010001 aaadb
1aaadg

#35500
0aaadg

#36000
b1 aaaap
b1 aaabw
b1010000 aaacm
1aaadg

#36500
0aaadg

#37000
b10 aaaap
1aaacl
1aaacq
1aaada
1aaadg

#37500
0aaadg

#38000
b1 aaaaq
b11101 aaaau
b10 aaaaz
0aaacr
1aaacz
1aaadg

#38500
0aaadg

#39000
b0 aaaap
b10 aaaaq
b10 aaabw
1aaack
1aaadg

#39500
0aaadg

#40000
b1010000 aaaav
b10 aaaba
b0 aaabw
0aaacl
0aaacq
0aaada
1aaadg

#40500
0aaadg

#41000
b0 aaaaq
b1 aaaaz
b110 aaacs
0aaacz
1aaadg

#41500
b11101 aaadb
0aaadg

#42000
b1 aaabw
0aaack
1aaacr
1aaadg

#42500
0aaadg

#43000
b1 aaaap
b110101 aaacm
1aaada
1aaadg

#43500
0aaadg

#44000
b10 aaaap
1aaacl
1aaacq
1aaacz
1aaadg

#44500
0aaadg

#45000
b1 aaaaq
b110 aaaau
b10 aaaaz
b10 aaabw
0aaacr
1aaadg

#45500
0aaadg

#46000
b0 aaaap
b10 aaaaq
b0 aaabw
1aaack
0aaada
1aaadg

#46500
0aaadg

#47000
b110101 aaaav
b1 aaaaz
b11 aaaba
b1101 aaabo
1aaacf
b10010001 aaacg
0aaacl
0aaacq
0aaacz
1aaadg

#47500
b110 aaadb
0aaadg

#48000
b0 aaaaq
b1 aaaar
b1 aaabw
b10000110 aaacs
1aaadg

#48500
0aaadg

#49000
b10 aaaar
1aaace
0aaack
1aaacr
1aaada
1aaadg

#49500
0aaadg

#50000
b1 aaaap
b10010001 aaaaw
b1 aaabb
0aaacf
b11100111 aaacm
1aaacx
b10010001 aaacy
1aaacz
1aaadg

#50500
0aaadg

#51000
b1 aaaao
b10 aaaap
b0 aaaar
b101 aaabq
b10 aaabw
1aaacl
1aaacq
1aaadg

#51500
0aaadg

#52000
b10 aaaao
b1 aaaaq
b10000110 aaaau
b10 aaaaz
b0 aaabw
0aaace
0aaacr
1aaacw
0aaada
1aaadg

#52500
0aaadg

#53000
b0 aaaap
b10 aaaaq
b10010001 aaaat
b1 aaaay
b1 aaaaz
b1111001 aaacg
1aaack
0aaacx
0aaacz
1aaadg

#53500
b10000110 aaadb
0aaadg

#54000
b0 aaaao
b11100111 aaaav
b100 aaaba
b101 aaabn
b1 aaabw
1aaacf
0aaacl
0aaacq
1aaadg

#54500
0aaadg

#55000
b0 aaaaq
b1 aaaar
b0 aaacs
0aaacw
1aaada
1aaadg

#55500
0aaadg

#56000
b10 aaaar
1aaace
0aaack
b11 aaacy
1aaacz
1aaadg

#56500
0aaadg

#57000
b1111001 aaaaw
b10 aaabb
b10 aaabw
0aaacf
b0 aaacm
1aaacx
1aaadg

#57500
0aaadg

#58000
b1 aaaao
b0 aaaar
b0 aaabw
0aaada
1aaadg

#58500
0aaadg

#59000
b10 aaaao
b0 aaaaz
b0 aaabo
0aaace
1aaacw
0aaacz
1aaadg

#59500
0aaadg

#60000
b11 aaaat
b10 aaaay
b1 aaabw
b1011100 aaacg
0aaacx
b0 aaadb
1aaadg

#60500
0aaadg

#61000
b0 aaaao
b101 aaabr
1aaacf
1aaada
1aaadg

#61500
0aaadg

#62000
b1 aaaar
0aaacw
b10010001 aaadb
1aaadg

#62500
0aaadg

#63000
b10 aaaar
1aaace
b110101 aaacy
1aaacz
1aaadg

#63500
0aaadg

#64000
b1011100 aaaaw
b11 aaabb
b10 aaabw
0aaacf
1aaacx
1aaadg

#64500
0aaadg

#65000
b1 aaaao
b0 aaaar
b0 aaabw
0aaada
1aaadg

#65500
0aaadg

#66000
b10 aaaao
b11 aaaba
0aaace
1aaacw
0aaacz
1aaadg

#66500
b1010000 aaadb
0aaadg

#67000
b110101 aaaat
b11 aaaay
b1 aaabw
b11101101 aaacg
0aaacx
1aaadg

#67500
0aaadg

#68000
b0 aaaao
1aaacf
1aaada
1aaadg

#68500
0aaadg

#69000
b1 aaaar
0aaacw
1aaacz
1aaadg

#69500
0aaadg

#70000
b10 aaaar
b10 aaabw
1aaace
b10100111 aaacy
1aaadg

#70500
0aaadg

#71000
b11101101 aaaaw
b100 aaabb
b0 aaabw
0aaacf
1aaacx
0aaada
1aaadg

#71500
0aaadg

#72000
b1 aaaao
b0 aaaar
b10 aaaba
b1101 aaabp
0aaacz
1aaadg

#72500
b110101 aaadb
0aaadg

#73000
b10 aaaao
b1 aaabw
0aaace
1aaacw
1aaadg

#73500
0aaadg

#74000
b10100111 aaaat
b100 aaaay
b0 aaacg
0aaacx
1aaada
1aaadg

#74500
0aaadg

#75000
b0 aaaao
1aaacz
1aaadg

#75500
0aaadg

#76000
b10 aaabw
0aaacw
1aaadg

#76500
0aaadg

#77000
b0 aaabw
b0 aaacy
0aaada
1aaadg

#77500
0aaadg

#78000
b1 aaaba
0aaacz
1aaadg

#78500
b11100111 aaadb
0aaadg

#79000
b1 aaabw
1aaadg

#79500
0aaadg

#80000
1aaada
1aaadg

#80500
0aaadg

#81000
1aaacz
1aaadg

#81500
0aaadg

#82000
b10 aaabw
1aaadg

#82500
0aaadg

#83000
b0 aaabw
0aaada
1aaadg

#83500
0aaadg

#84000
b0 aaaba
b0 aaabp
0aaacz
1aaadg

#84500
0aaadg

#85000
b1 aaabw
b0 aaadb
1aaadg

#85500
0aaadg

#86000
b111 aaabr
1aaada
1aaadg

#86500
0aaadg

#87000
b10010001 aaadb
1aaadg

#87500
0aaadg

#88000
1aaacz
1aaadg

#88500
0aaadg

#89000
b10 aaabw
1aaacf
b10010001 aaacg
1aaadg

#89500
0aaadg

#90000
b1 aaaar
b0 aaabw
0aaada
1aaadg

#90500
0aaadg

#91000
b10 aaaar
b11 aaabb
1aaace
0aaacz
1aaadg

#91500
b1111001 aaadb
0aaadg

#92000
b10010001 aaaaw
b100 aaabb
b1 aaabw
0aaacf
1aaadg

#92500
0aaadg

#93000
b0 aaaar
1aaada
1aaadg

#93500
0aaadg

#94000
0aaace
1aaacl
b10010001 aaacm
1aaacz
1aaadg

#94500
0aaadg

#95000
b1 aaaaq
b10 aaabw
b101110 aaacg
1aaadg

#95500
0aaadg

#96000
b10 aaaaq
b0 aaabw
1aaacf
1aaack
0aaada
1aaadg

#96500
0aaadg

#97000
b1 aaaar
b10010001 aaaav
b1 aaaba
b11 aaabb
b1101 aaabq
0aaacl
0aaacz
1aaadg

#97500
b1011100 aaadb
0aaadg

#98000
b0 aaaaq
b10 aaaar
b101 aaabp
b1 aaabw
1aaace
1aaadg

#98500
0aaadg

#99000
b101110 aaaaw
b100 aaabb
0aaacf
0aaack
1aaada
1aaadg

#99500
0aaadg

#100000
b0 aaaar
b1101111 aaacm
1aaacz
1aaadg

#100500
0aaadg

#101000
b10 aaabw
0aaace
1aaacl
1aaadg

#101500
0aaadg

#102000
b1 aaaaq
b0 aaabw
b100101 aaacg
1aaacr
b10010001 aaacs
0aaada
1aaadg

#102500
0aaadg

#103000
b1 aaaap
b10 aaaaq
b11 aaabb
1aaacf
1aaack
0aaacz
1aaadg

#103500
b11101101 aaadb
0aaadg

#104000
b10 aaaap
b1 aaaar
b1101111 aaaav
b10 aaaba
b1 aaabw
0aaacl
1aaacq
1aaadg

#104500
0aaadg

#105000
b0 aaaaq
b10 aaaar
b10010001 aaaau
b1 aaaaz
1aaace
0aaacr
1aaada
1aaadg

#105500
0aaadg

#106000
b0 aaaap
b100101 aaaaw
b100 aaabb
b101 aaabo
0aaacf
0aaack
1aaacz
1aaadg

#106500
0aaadg

#107000
b0 aaaar
b10 aaabw
b10110 aaacm
0aaacq
1aaacx
b10010001 aaacy
1aaadg

#107500
0aaadg

#108000
b1 aaaao
b0 aaabw
0aaace
1aaacl
b111100 aaacs
0aaada
1aaadg

#108500
0aaadg

#109000
b10 aaaao
b1 aaaaq
b11 aaabb
b0 aaabq
b10110011 aaacg
1aaacr
1aaacw
0aaacz
1aaadg

#109500
b10010001 aaadb
0aaadg

#110000
b1 aaaap
b10 aaaaq
b10010001 aaaat
b101 aaaay
b101 aaabq
b1 aaabw
1aaacf
1aaack
0aaacx
b0 aaadb
1aaadg

#110500
0aaadg

#111000
b0 aaaao
b10 aaaap
b1 aaaar
b10110 aaaav
b11 aaaba
b1 aaabr
0aaacl
1aaacq
1aaada
b10010001 aaadb
1aaadg

#111500
0aaadg

#112000
b0 aaaaq
b10 aaaar
b111100 aaaau
b10 aaaaz
1aaace
0aaacr
0aaacw
1aaacz
1aaadg

#112500
0aaadg

#113000
b0 aaaap
b10110011 aaaaw
b100 aaabb
b10 aaabw
0aaacf
0aaack
b11001 aaacy
1aaadg

#113500
0aaadg

#114000
b0 aaaar
b0 aaabw
b11110001 aaacm
0aaacq
1aaacx
0aaada
1aaadg

#114500
0aaadg

#115000
b1 aaaao
b100 aaaay
0aaace
1aaacl
b1110100 aaacs
0aaacz
1aaadg

#115500
b11 aaadb
0aaadg

#116000
b10 aaaao
b1 aaaaq
b1 aaabw
b0 aaacg
1aaacr
1aaacw
1aaadg

#116500
0aaadg

#117000
b1 aaaap
b10 aaaaq
b11001 aaaat
b101 aaaay
1aaack
0aaacx
1aaada
1aaadg

#117500
0aaadg

#118000
b0 aaaao
b10 aaaap
b11110001 aaaav
b100 aaaba
0aaacl
1aaacq
1aaacz
1aaadg

#118500
0aaadg

#119000
b0 aaaaq
b1110100 aaaau
b11 aaaaz
b10 aaabw
0aaacr
0aaacw
1aaadg

#119500
0aaadg

#120000
b0 aaaap
b0 aaabw
0aaack
b1100011 aaacy
0aaada
1aaadg

#120500
0aaadg

#121000
b100 aaaay
b1101 aaabn
b0 aaacm
0aaacq
1aaacx
0aaacz
1aaadg

#121500
b110101 aaadb
0aaadg

#122000
b1 aaaao
b1 aaabw
b10111001 aaacs
1aaadg

#122500
0aaadg

#123000
b10 aaaao
1aaacr
1aaacw
1aaada
1aaadg

#123500
0aaadg

#124000
b1 aaaap
b1100011 aaaat
b101 aaaay
0aaacx
1aaacz
1aaadg

#124500
0aaadg

#125000
b0 aaaao
b10 aaaap
b10 aaabw
1aaacq
1aaadg

#125500
0aaadg

#126000
b10111001 aaaau
b100 aaaaz
b0 aaabw
0aaacr
0aaacw
0aaada
1aaadg

#126500
0aaadg

#127000
b0 aaaap
b100 aaaay
b10011110 aaacy
0aaacz
1aaadg

#127500
b10100111 aaadb
0aaadg

#128000
b1 aaabw
0aaacq
1aaacx
1aaadg

#128500
0aaadg

#129000
b1 aaaao
b0 aaacs
1aaada
1aaadg

#129500
0aaadg

#130000
b10 aaaao
1aaacw
1aaacz
1aaadg

#130500
0aaadg

#131000
b10011110 aaaat
b101 aaaay
b10 aaabw
0aaacx
1aaadg

#131500
0aaadg

#132000
b0 aaaao
b0 aaabw
0aaada
1aaadg

#132500
0aaadg

#133000
b100 aaaay
b0 aaabn
0aaacw
0aaacz
1aaadg

#133500
b10010001 aaadb
0aaadg

#134000
b101 aaabn
b1 aaabw
b0 aaacy
b0 aaadb
1aaadg

#134500
0aaadg

#135000
b11 aaabr
1aaada
b10010001 aaadb
1aaadg

#135500
0aaadg

#136000
1aaacx
b10010001 aaacy
1aaacz
1aaadg

#136500
0aaadg

#137000
b1 aaaao
b10 aaabw
1aaadg

#137500
0aaadg

#138000
b10 aaaao
b0 aaabw
1aaacf
b10010001 aaacg
1aaacw
0aaada
1aaadg

#138500
0aaadg

#139000
b1 aaaar
b10010001 aaaat
b101 aaaay
b11 aaaaz
0aaacx
0aaacz
1aaadg

#139500
b111100 aaadb
0aaadg

#140000
b0 aaaao
b10 aaaar
b1 aaabw
1aaace
1aaadg

#140500
0aaadg

#141000
b10010001 aaaaw
b101 aaabb
0aaacf
0aaacw
1aaada
1aaadg

#141500
0aaadg

#142000
b0 aaaar
b100101 aaacy
1aaacz
1aaadg

#142500
0aaadg

#143000
b10 aaabw
0aaace
1aaacr
b10010001 aaacs
1aaacx
1aaadg

#143500
0aaadg

#144000
b1 aaaao
b1 aaaap
b0 aaabw
b1001000 aaacg
0aaada
1aaadg

#144500
0aaadg

#145000
b10 aaaao
b10 aaaap
b10 aaaaz
b1101 aaabo
1aaacf
1aaacl
b10010001 aaacm
1aaacq
1aaacw
0aaacz
1aaadg

#145500
b1110100 aaadb
0aaadg

#146000
b1 aaaaq
b1 aaaar
b100101 aaaat
b10010001 aaaau
b110 aaaay
b11 aaaaz
b1 aaabw
0aaacr
0aaacx
1aaadg

#146500
0aaadg

#147000
b0 aaaao
b0 aaaap
b10 aaaaq
b10 aaaar
1aaace
1aaack
1aaada
1aaadg

#147500
0aaadg

#148000
b10010001 aaaav
b1001000 aaaaw
b101 aaaba
b110 aaabb
0aaacf
0aaacl
0aaacq
0aaacw
1aaacz
1aaadg

#148500
0aaadg

#149000
b0 aaaaq
b0 aaaar
b10 aaabw
b1111110 aaacs
b1010001 aaacy
1aaadg

#149500
0aaadg

#150000
b0 aaabw
0aaace
0aaack
1aaacr
1aaacx
0aaada
1aaadg

#150500
0aaadg

#151000
b1 aaaap
b10 aaaaz
b1001111 aaacg
b1001110 aaacm
0aaacz
1aaadg

#151500
b10111001 aaadb
0aaadg

#152000
b10 aaaap
b1 aaabw
1aaacf
1aaacl
1aaacq
1aaadg

#152500
0aaadg

#153000
b1 aaaaq
b1111110 aaaau
b11 aaaaz
0aaacr
1aaada
1aaadg

#153500
0aaadg

#154000
b0 aaaap
b10 aaaaq
1aaack
1aaacz
1aaadg

#154500
0aaadg

#155000
b1001110 aaaav
b110 aaaba
b10 aaabw
0aaacl
0aaacq
1aaadg

#155500
0aaadg

#156000
b0 aaaaq
b0 aaabw
b101111 aaacs
0aaada
1aaadg

#156500
0aaadg

#157000
b10 aaaaz
b0 aaabo
0aaack
1aaacr
0aaacz
1aaadg

#157500
b10010001 aaadb
0aaadg

#158000
b1 aaaap
b101 aaabo
b1 aaabw
b101001 aaacm
b0 aaadb
1aaadg

#158500
0aaadg

#159000
b10 aaaap
b101 aaabr
1aaacl
1aaacq
1aaada
b10010001 aaadb
1aaadg

#159500
0aaadg

#160000
b101111 aaaau
b11 aaaaz
0aaacr
1aaacz
1aaadg

#160500
0aaadg

#161000
b0 aaaap
b10 aaabw
1aaadg

#161500
0aaadg

#162000
b0 aaabw
0aaacq
0aaada
1aaadg

#162500
0aaadg

#163000
b101 aaaba
b11101000 aaacs
0aaacz
1aaadg

#163500
b1101111 aaadb
0aaadg

#164000
b1 aaaaq
b1 aaabw
1aaacr
1aaadg

#164500
0aaadg

#165000
b1 aaaap
b10 aaaaq
1aaack
1aaada
1aaadg

#165500
0aaadg

#166000
b10 aaaap
b101001 aaaav
b110 aaaba
0aaacl
1aaacq
1aaacz
1aaadg

#166500
0aaadg

#167000
b0 aaaaq
b11101000 aaaau
b100 aaaaz
b10 aaabw
0aaacr
1aaadg

#167500
0aaadg

#168000
b0 aaaap
b0 aaabw
0aaack
0aaada
1aaadg

#168500
0aaadg

#169000
b101 aaaba
b1101 aaabp
b10011110 aaacm
0aaacq
0aaacz
1aaadg

#169500
b10110 aaadb
0aaadg

#170000
b1 aaabw
1aaacl
b0 aaacs
1aaadg

#170500
0aaadg

#171000
b1 aaaaq
1aaada
1aaadg

#171500
0aaadg

#172000
b10 aaaaq
1aaack
1aaacz
1aaadg

#172500
0aaadg

#173000
b10011110 aaaav
b110 aaaba
b10 aaabw
0aaacl
1aaadg

#173500
0aaadg

#174000
b0 aaaaq
b0 aaabw
0aaada
1aaadg

#174500
0aaadg

#175000
b101 aaaba
0aaack
0aaacz
1aaadg

#175500
b11110001 aaadb
0aaadg

#176000
b1 aaabw
b0 aaacm
1aaadg

#176500
0aaadg

#177000
1aaada
1aaadg

#177500
0aaadg

#178000
1aaacz
1aaadg

#178500
0aaadg

#179000
b10 aaabw
1aaadg

#179500
0aaadg

#180000
b0 aaabw
0aaada
1aaadg

#180500
0aaadg

#181000
b100 aaaba
b0 aaabp
0aaacz
1aaadg

#181500
b10010001 aaadb
0aaadg

#182000
b101 aaabp
b1 aaabw
b0 aaadb
1aaadg

#182500
0aaadg

#183000
b111 aaabr
1aaada
b10010001 aaadb
1aaadg

#183500
0aaadg

#184000
1aaacz
1aaadg

#184500
0aaadg

#185000
b10 aaabw
1aaadg

#185500
0aaadg

#186000
b0 aaabw
0aaada
1aaadg

#186500
0aaadg

#187000
b101 aaabb
0aaacz
1aaadg

#187500
b101110 aaadb
0aaadg

#188000
b1 aaaar
b1 aaabw
1aaadg

#188500
0aaadg

#189000
b10 aaaar
1aaace
1aaacr
b10010001 aaacs
1aaada
1aaadg

#189500
0aaadg

#190000
b1 aaaap
b1001111 aaaaw
b110 aaabb
0aaacf
1aaacz
1aaadg

#190500
0aaadg

#191000
b10 aaaap
b0 aaaar
b10 aaabw
1aaacq
1aaadg

#191500
0aaadg

#192000
b10010001 aaaau
b101 aaaaz
b0 aaabw
0aaace
0aaacr
0aaada
1aaadg

#192500
0aaadg

#193000
b0 aaaap
b101 aaabb
b1101 aaabq
b10000101 aaacg
0aaacz
1aaadg

#193500
b100101 aaadb
0aaadg

#194000
b1 aaabw
1aaacf
0aaacq
1aaadg

#194500
0aaadg

#195000
b1 aaaar
b1011110 aaacs
1aaada
1aaadg

#195500
0aaadg

#196000
b10 aaaar
1aaace
1aaacr
1aaacz
1aaadg

#196500
0aaadg

#197000
b1 aaaap
b10000101 aaaaw
b110 aaabb
b10 aaabw
0aaacf
1aaadg

#197500
0aaadg

#198000
b10 aaaap
b0 aaaar
b0 aaabw
1aaacq
0aaada
1aaadg

#198500
0aaadg

#199000
b1011110 aaaau
b110 aaaaz
b101 aaabb
0aaace
0aaacr
0aaacz
1aaadg

#199500
b10110011 aaadb
0aaadg

#200000
b0 aaaap
b1 aaabw
b0 aaacg
1aaadg

#200500
0aaadg

#201000
0aaacq
1aaada
1aaadg

#201500
0aaadg

#202000
b1101000 aaacs
1aaacz
1aaadg

#202500
0aaadg

#203000
b10 aaabw
1aaacr
1aaadg

#203500
0aaadg

#204000
b0 aaabw
0aaada
1aaadg

#204500
0aaadg

#205000
b100 aaabb
b0 aaabq
0aaacz
1aaadg

#205500
b10010001 aaadb
0aaadg

#206000
b101 aaabq
b1 aaabw
b0 aaadb
1aaadg

#206500
0aaadg

#207000
b1 aaabr
1aaada
b10010001 aaadb
1aaadg

#207500
0aaadg

#208000
1aaacz
1aaadg

#208500
0aaadg

#209000
b10 aaabw
1aaadg

#209500
0aaadg

#210000
b0 aaabw
0aaada
1aaadg

#210500
0aaadg

#211000
b101 aaaay
0aaacz
1aaadg

#211500
b11001 aaadb
0aaadg

#212000
b1 aaaao
b1 aaabw
1aaadg

#212500
0aaadg

#213000
b10 aaaao
1aaacw
1aaada
1aaadg

#213500
0aaadg

#214000
b1010001 aaaat
b110 aaaay
1aaacl
b10010001 aaacm
0aaacx
1aaacz
1aaadg

#214500
0aaadg

#215000
b0 aaaao
b1 aaaaq
b10 aaabw
1aaadg

#215500
0aaadg

#216000
b10 aaaaq
b0 aaabw
1aaack
0aaacw
0aaada
1aaadg

#216500
0aaadg

#217000
b10010001 aaaav
b101 aaaay
b101 aaaba
b1101 aaabn
0aaacl
b11010100 aaacy
0aaacz
1aaadg

#217500
b1100011 aaadb
0aaadg

#218000
b0 aaaaq
b1 aaabw
1aaacx
1aaadg

#218500
0aaadg

#219000
b1 aaaao
0aaack
1aaada
1aaadg

#219500
0aaadg

#220000
b10 aaaao
b110111 aaacm
1aaacw
1aaacz
1aaadg

#220500
0aaadg

#221000
b11010100 aaaat
b110 aaaay
b10 aaabw
1aaacl
0aaacx
1aaadg

#221500
0aaadg

#222000
b0 aaaao
b1 aaaaq
b0 aaabw
0aaada
1aaadg

#222500
0aaadg

#223000
b10 aaaaq
b101 aaaay
1aaack
0aaacw
0aaacz
1aaadg

#223500
b10011110 aaadb
0aaadg

#224000
b110111 aaaav
b110 aaaba
b1 aaabw
0aaacl
b0 aaacy
1aaadg

#224500
0aaadg

#225000
b0 aaaaq
1aaada
1aaadg

#225500
0aaadg

#226000
0aaack
1aaacz
1aaadg

#226500
0aaadg

#227000
b10 aaabw
b1100011 aaacm
1aaadg

#227500
0aaadg

#228000
b0 aaabw
1aaacl
0aaada
1aaadg

#228500
0aaadg

#229000
b100 aaaay
b0 aaabn
0aaacz
1aaadg

#229500
b10010001 aaadb
0aaadg

#230000
b101 aaabn
b1 aaabw
b0 aaadb
1aaadg

#230500
0aaadg

#231000
b11 aaabr
1aaada
b10010001 aaadb
1aaadg

#231500
0aaadg

#232000
1aaacf
b10010001 aaacg
1aaacz
1aaadg

#232500
0aaadg

#233000
b1 aaaar
b10 aaabw
1aaadg

#233500
0aaadg

#234000
b10 aaaar
b0 aaabw
1aaace
0aaada
1aaadg

#234500
0aaadg

#235000
b10010001 aaaaw
b101 aaaaz
b101 aaabb
0aaacf
0aaacz
1aaadg

#235500
b1111110 aaadb
0aaadg

#236000
b1 aaaap
b0 aaaar
b1 aaabw
1aaadg

#236500
0aaadg

#237000
b10 aaaap
0aaace
1aaacq
1aaada
1aaadg

#237500
0aaadg

